…
1.  `ae_links` contains links between accession type within AE

``` r
ae_links
#> # A tibble: 1,849 × 2
#>     ae_array ae_experiment
#>        <chr>         <chr>
#> 1  A-AFFY-27  E-GEOD-77842
#> 2  A-AFFY-27  E-GEOD-69485
#> 3  A-AFFY-27  E-GEOD-65942
#> 4  A-AFFY-27  E-GEOD-43474
#> 5  A-AFFY-27  E-GEOD-65111
#> 6  A-AFFY-27  E-GEOD-55372
#> 7  A-AFFY-27  E-GEOD-52256
#> 8  A-AFFY-27  E-GEOD-17527
#> 9  A-AFFY-27  E-GEOD-46853
#> 10 A-AFFY-27  E-GEOD-49002
#> # ... with 1,839 more rows
```

1.  `ae_cel_files` cel file names made by parsing all he SDRF.txt files for scerden AE experiments

``` r
ae_cel_files
#> # A tibble: 564 × 2
#>    ae_experiment  cel_files
#>            <chr>     <list>
#> 1   E-GEOD-10031 <chr [22]>
#> 2   E-GEOD-10066  <chr [9]>
#> 3   E-GEOD-10073  <chr [6]>
#> 4   E-GEOD-10091  <chr [4]>
#> 5   E-GEOD-10104  <chr [6]>
#> 6   E-GEOD-10205 <chr [14]>
#> 7   E-GEOD-10521 <chr [25]>
#> 8   E-GEOD-10554  <chr [6]>
#> 9   E-GEOD-10930  <chr [4]>
#> 10  E-GEOD-10933  <chr [4]>
#> # ... with 554 more rows
```

1.  `ae_samples` contains names and urls of sample data files for experiments in AE scerden

``` r
ae_samples
#> # A tibble: 96,434 × 5
#>    ae_experiment assay_name         type
#>            <chr>      <chr>        <chr>
#> 1   E-GEOD-77842 GSM2060303         data
#> 2   E-GEOD-77842 GSM2060303 derived data
#> 3   E-GEOD-77842 GSM2060302         data
#> 4   E-GEOD-77842 GSM2060302 derived data
#> 5   E-GEOD-77842 GSM2060301         data
#> 6   E-GEOD-77842 GSM2060301 derived data
#> 7   E-GEOD-77842 GSM2060300         data
#> 8   E-GEOD-77842 GSM2060300 derived data
#> 9   E-GEOD-77842 GSM2060299         data
#> 10  E-GEOD-77842 GSM2060299 derived data
#> # ... with 96,424 more rows, and 2 more variables: name <chr>, url <chr>
```
…
